sampling
…
virtual_class %>%
  arrange(desc(red_sum))

## # A tibble: 51 x 3
##    replicate red_sum perc_red
##        <int>   <int>    <dbl>
##  1        12       9     0.36
##  2        35       9     0.36
##  3         4       8     0.32
##  4        21       8     0.32
##  5        33       8     0.32
##  6        36       8     0.32
##  7         3       7     0.28
##  8         5       7     0.28
##  9        17       7     0.28
## 10        19       7     0.28
## #  with 41 more rows
…
